TABLA_02SOP/tabla_02s_tb.vcd
$date
	Fri Jul 31 22:42:21 2020
$end
$version
	Icarus Verilog
$end
$timescale
	1ps
$end
$scope module tabla_02s $end
$var wire 1 ! nA $end
$var wire 1 " nB $end
$var wire 1 # nC $end
$var wire 1 $ sal $end
$var wire 1 % w1 $end
$var wire 1 & w2 $end
$var wire 1 ' w3 $end
$var reg 1 ( A $end
$var reg 1 ) B $end
$var reg 1 * C $end
$upscope $end
$enddefinitions $end
#0
$dumpvars
0*
0)
0(
0'
0&
0%
0$
1#
1"
1!
$end
#1
1$
1%
0#
1*
#2
0$
0%
1#
0"
0*
1)
#3
0#
1*
#4
1#
1"
0!
0*
0)
1(
#5
0#
1*
#6
1$
1&
1#
0"
0*
1)
#7
0&
1'
0#
1*
